#
# A fatal error has been detected by the Java Runtime Environment:
#
#  Internal Error (os_windows_x86.cpp:114), pid=1764, tid=7040
#  Error: guarantee(result == -1,"Unexpected result from topLevelExceptionFilter")
#
# JRE version: 6.0_17-b04
# Java VM: Java HotSpot(TM) 64-Bit Server VM (14.3-b01 mixed mode windows-amd64 )
# If you would like to submit a bug report, please visit:
#   http://java.sun.com/webapps/bugreport/crash.jsp
# The crash happened outside the Java Virtual Machine in native code.
# See problematic frame for where to report the bug.
#

---------------  T H R E A D  ---------------

Current thread (0x0000000005b06000):  JavaThread "main" [_thread_in_native, id=7040, stack(0x00000000000a0000,0x00000000040a0000)]

Stack: [0x00000000000a0000,0x00000000040a0000]
[error occurred during error reporting (printing stack bounds), id 0xc0000005]

Java frames: (J=compiled Java code, j=interpreted, Vv=VM code)
j  com.mathworks.jmi.NativeMatlab.ProcessPendingEvents()Z+0
j  com.mathworks.jmi.NativeMatlab.processPendingEvents()Z+8
j  com.mathworks.jmi.Matlab$ProcessPendingEvents.callBooleanMethod(Ljava/lang/Object;)Z+0
j  com.mathworks.util.FactoryUtils.processPendingEvents()Z+12
j  com.mathworks.widgets.desk.Desktop.canClose()Z+38
j  com.mathworks.mde.desk.MLDesktop.canClose()Z+113
j  com.mathworks.mde.desk.MLDesktop$2.call()Ljava/lang/Boolean;+4
j  com.mathworks.mde.desk.MLDesktop$2.call()Ljava/lang/Object;+1
j  com.mathworks.jmi.Matlab.isOkToExit()Z+54
v  ~StubRoutines::call_stub
j  com.mathworks.jmi.NativeMatlab.SendMatlabMessage(Ljava/lang/Object;)Ljava/lang/Object;+0
j  com.mathworks.jmi.NativeMatlab.sendMatlabMessage(Ljava/lang/Object;)Ljava/lang/Object;+22
j  com.mathworks.jmi.MatlabLooper.sendMatlabMessage(Lcom/mathworks/services/message/MWMessage;)Ljava/lang/Object;+20
j  com.mathworks.jmi.Matlab.mtFevalConsoleOutput(Ljava/lang/String;[Ljava/lang/Object;I)Ljava/lang/Object;+58
j  com.mathworks.mde.desk.MLDesktop$8.run()V+14
j  com.mathworks.jmi.NativeMatlab.dispatchMTRequests(Z)V+57
v  ~StubRoutines::call_stub

---------------  P R O C E S S  ---------------

Java Threads: ( => current thread )
  0x000000005953d800 JavaThread "Explorer NavigationContext request queue" [_thread_blocked, id=2512, stack(0x0000000019160000,0x00000000191e0000)]
  0x000000005953f000 JavaThread "pool-7-thread-1" [_thread_blocked, id=5332, stack(0x0000000018670000,0x00000000186f0000)]
  0x000000005953c000 JavaThread "Timer-255" [_thread_blocked, id=8196, stack(0x0000000018e90000,0x0000000018f10000)]
  0x000000000f4b6000 JavaThread "Foxtrot Single Worker Thread #1" daemon [_thread_blocked, id=3116, stack(0x0000000018bc0000,0x0000000018c40000)]
  0x000000000f4b9800 JavaThread "pool-1-thread-1" [_thread_blocked, id=2988, stack(0x0000000018a20000,0x0000000018aa0000)]
  0x000000000f4b4800 JavaThread "Prefs Updater" daemon [_thread_blocked, id=996, stack(0x0000000018730000,0x00000000187b0000)]
  0x000000000f4b7800 JavaThread "Swing-Shell" daemon [_thread_blocked, id=5240, stack(0x000000003ac30000,0x000000003acb0000)]
  0x0000000059542800 JavaThread "Active Reference Queue Daemon" daemon [_thread_blocked, id=6960, stack(0x000000005c680000,0x000000005c700000)]
  0x0000000059540800 JavaThread "Timer-7" daemon [_thread_blocked, id=7044, stack(0x000000005eb10000,0x000000005eb90000)]
  0x0000000059541000 JavaThread "Timer-6" daemon [_thread_blocked, id=7344, stack(0x000000005e5c0000,0x000000005e640000)]
  0x000000005953e000 JavaThread "AddressBar directory emptiness poller" [_thread_blocked, id=7716, stack(0x000000005e6e0000,0x000000005e760000)]
  0x000000005953c800 JavaThread "Explorer Refresh Service 1238214631" [_thread_blocked, id=6884, stack(0x000000005e770000,0x000000005e7f0000)]
  0x000000005953b800 JavaThread "Timer-1" daemon [_thread_blocked, id=5844, stack(0x000000005e430000,0x000000005e4b0000)]
  0x000000005953a800 JavaThread "TimerQueue" daemon [_thread_blocked, id=1604, stack(0x0000000018fe0000,0x0000000019060000)]
  0x000000005953a000 JavaThread "Thread-5" daemon [_thread_blocked, id=7188, stack(0x00000000354e0000,0x0000000035560000)]
  0x0000000059539000 JavaThread "AWT-EventQueue-0" [_thread_in_native, id=5900, stack(0x000000000fdd0000,0x000000000fe50000)]
  0x0000000059538800 JavaThread "AWT-Shutdown" [_thread_blocked, id=5024, stack(0x000000002d360000,0x000000002d3e0000)]
  0x0000000059537800 JavaThread "FelixPackageAdmin" daemon [_thread_blocked, id=6036, stack(0x0000000054b50000,0x0000000054bd0000)]
  0x0000000059537000 JavaThread "FelixStartLevel" daemon [_thread_blocked, id=6724, stack(0x0000000039620000,0x00000000396a0000)]
  0x00000000595c8800 JavaThread "FelixDispatchQueue" daemon [_thread_blocked, id=2992, stack(0x000000000eba0000,0x000000000ec20000)]
  0x00000000593e4000 JavaThread "com.google.common.base.internal.Finalizer" daemon [_thread_blocked, id=6816, stack(0x0000000025280000,0x0000000025300000)]
  0x0000000059029800 JavaThread "AWT-Windows" daemon [_thread_in_native, id=7000, stack(0x000000000fe50000,0x000000000fed0000)]
  0x0000000059028000 JavaThread "Java2D Disposer" daemon [_thread_blocked, id=1432, stack(0x000000000fd40000,0x000000000fdc0000)]
  0x0000000058d10800 JavaThread "Timer-0" [_thread_blocked, id=4004, stack(0x000000000ecf0000,0x000000000ed70000)]
  0x000000000fbe9000 JavaThread "EventMgr Dispatcher" daemon [_thread_in_native, id=7156, stack(0x0000000009040000,0x000000000d040000)]
  0x000000000ea20800 JavaThread "Low Memory Detector" daemon [_thread_blocked, id=4400, stack(0x000000000ee90000,0x000000000ef10000)]
  0x000000000ea19000 JavaThread "CompilerThread1" daemon [_thread_blocked, id=5184, stack(0x000000008c330000,0x0000000090330000)]
  0x000000000ea12000 JavaThread "CompilerThread0" daemon [_thread_blocked, id=7220, stack(0x00000000882e0000,0x000000008c2e0000)]
  0x000000000ea11000 JavaThread "Attach Listener" daemon [_thread_blocked, id=4112, stack(0x000000000eb20000,0x000000000eba0000)]
  0x000000000e9b7000 JavaThread "Finalizer" daemon [_thread_blocked, id=6168, stack(0x000000000eda0000,0x000000000ee20000)]
  0x000000000e9b6800 JavaThread "Reference Handler" daemon [_thread_blocked, id=6916, stack(0x000000000ec60000,0x000000000ece0000)]
=>0x0000000005b06000 JavaThread "main" [_thread_in_native, id=7040, stack(0x00000000000a0000,0x00000000040a0000)]

Other Threads:
  0x000000000e9b3000 VMThread [stack: 0x0000000084180000,0x0000000088180000] [id=7032]
  0x000000000ea6f000 WatcherThread [stack: 0x0000000090430000,0x0000000094430000] [id=7884]

VM state:not at safepoint (normal execution)

VM Mutex/Monitor currently owned by a thread: None

Heap
 PSYoungGen      total 30080K, used 9116K [0x0000000051a40000, 0x0000000053bb0000, 0x0000000054b40000)
  eden space 27072K, 25% used [0x0000000051a40000,0x0000000052111f50,0x00000000534b0000)
  from space 3008K, 70% used [0x00000000538c0000,0x0000000053ad52b8,0x0000000053bb0000)
  to   space 3584K, 0% used [0x00000000534b0000,0x00000000534b0000,0x0000000053830000)
 PSOldGen        total 115712K, used 82651K [0x0000000048740000, 0x000000004f840000, 0x0000000051a40000)
  object space 115712K, 71% used [0x0000000048740000,0x000000004d7f6e60,0x000000004f840000)
 PSPermGen       total 82304K, used 73880K [0x0000000040740000, 0x00000000457a0000, 0x0000000048740000)
  object space 82304K, 89% used [0x0000000040740000,0x0000000044f663b0,0x00000000457a0000)

Dynamic libraries:
0x000000013f040000 - 0x000000013f06d000 	C:\Program Files\MATLAB\R2012b\bin\win64\MATLAB.exe
0x0000000076e00000 - 0x0000000076fa9000 	C:\windows\SYSTEM32\ntdll.dll
0x0000000076ce0000 - 0x0000000076dff000 	C:\windows\system32\kernel32.dll
0x000007fefcd60000 - 0x000007fefcdcb000 	C:\windows\system32\KERNELBASE.dll
0x0000000074460000 - 0x000000007451f000 	C:\Program Files\MATLAB\R2012b\bin\win64\libut.dll
0x00000000758a0000 - 0x000000007595c000 	C:\Program Files\MATLAB\R2012b\bin\win64\libmwi18n.dll
0x0000000180000000 - 0x000000018000b000 	C:\Program Files\MATLAB\R2012b\bin\win64\libmwresource_core.dll
0x0000000070b90000 - 0x0000000070c63000 	C:\windows\WinSxS\amd64_microsoft.vc90.crt_1fc8b3b9a1e18e3b_9.0.30729.6161_none_08e61857a83bc251\MSVCP90.dll
0x0000000070940000 - 0x00000000709e3000 	C:\windows\WinSxS\amd64_microsoft.vc90.crt_1fc8b3b9a1e18e3b_9.0.30729.6161_none_08e61857a83bc251\MSVCR90.dll
0x000000007a170000 - 0x000000007a19c000 	C:\Program Files\MATLAB\R2012b\bin\win64\boost_filesystem-vc90-mt-1_44.dll
0x000000007a560000 - 0x000000007a569000 	C:\Program Files\MATLAB\R2012b\bin\win64\boost_system-vc90-mt-1_44.dll
0x000007fefdda0000 - 0x000007fefde7b000 	C:\windows\system32\ADVAPI32.dll
0x000007fefe8a0000 - 0x000007fefe93f000 	C:\windows\system32\msvcrt.dll
0x000007fefe5f0000 - 0x000007fefe60f000 	C:\windows\SYSTEM32\sechost.dll
0x000007fefe420000 - 0x000007fefe54d000 	C:\windows\system32\RPCRT4.dll
0x000000007a010000 - 0x000000007a035000 	C:\Program Files\MATLAB\R2012b\bin\win64\LIBEXPAT.dll
0x000000006b860000 - 0x000000006ba51000 	C:\Program Files\MATLAB\R2012b\bin\win64\icuin44.dll
0x000000006baf0000 - 0x000000006bc61000 	C:\Program Files\MATLAB\R2012b\bin\win64\icuuc44.dll
0x0000000010000000 - 0x0000000010e41000 	C:\Program Files\MATLAB\R2012b\bin\win64\icudt44.dll
0x0000000073f70000 - 0x000000007411d000 	C:\Program Files\MATLAB\R2012b\bin\win64\libmwfl.dll
0x0000000004250000 - 0x0000000004606000 	C:\Program Files\MATLAB\R2012b\bin\win64\libmwMATLAB_res.dll
0x000000007a3b0000 - 0x000000007a3c0000 	C:\Program Files\MATLAB\R2012b\bin\win64\boost_date_time-vc90-mt-1_44.dll
0x000000007a250000 - 0x000000007a263000 	C:\Program Files\MATLAB\R2012b\bin\win64\boost_signals-vc90-mt-1_44.dll
0x000000007a2d0000 - 0x000000007a2e2000 	C:\Program Files\MATLAB\R2012b\bin\win64\boost_thread-vc90-mt-1_44.dll
0x0000000004650000 - 0x000000000470d000 	C:\Program Files\MATLAB\R2012b\bin\win64\boost_log-vc90-mt-1_44.dll
0x0000000076fd0000 - 0x0000000076fd7000 	C:\windows\system32\PSAPI.DLL
0x000007fefef00000 - 0x000007fefef4d000 	C:\windows\system32\WS2_32.dll
0x000007fefe9c0000 - 0x000007fefe9c8000 	C:\windows\system32\NSI.dll
0x0000000004720000 - 0x0000000004766000 	C:\Program Files\MATLAB\R2012b\bin\win64\tbb.dll
0x000007fefefb0000 - 0x000007fefefc9000 	C:\windows\system32\imagehlp.dll
0x000000006d510000 - 0x000000006d523000 	C:\Program Files\MATLAB\R2012b\bin\win64\icuio44.dll
0x000007fefc8c0000 - 0x000007fefc9e5000 	C:\windows\system32\dbghelp.dll
0x0000000076be0000 - 0x0000000076cda000 	C:\windows\system32\USER32.dll
0x000007fefe550000 - 0x000007fefe5b7000 	C:\windows\system32\GDI32.dll
0x000007fefe9d0000 - 0x000007fefe9de000 	C:\windows\system32\LPK.dll
0x000007fefeb40000 - 0x000007fefec09000 	C:\windows\system32\USP10.dll
0x0000000004790000 - 0x0000000004a6c000 	C:\Program Files\MATLAB\R2012b\bin\win64\libmwservices.dll
0x0000000075a20000 - 0x0000000075af3000 	C:\Program Files\MATLAB\R2012b\bin\win64\libmx.dll
0x0000000004a90000 - 0x0000000004ab9000 	C:\Program Files\MATLAB\R2012b\bin\win64\tbbmalloc.dll
0x000000007a210000 - 0x000000007a228000 	C:\Program Files\MATLAB\R2012b\bin\win64\zlib1.dll
0x0000000004ae0000 - 0x0000000004b2d000 	C:\Program Files\MATLAB\R2012b\bin\win64\libmwregexp.dll
0x0000000004b40000 - 0x0000000004b63000 	C:\Program Files\MATLAB\R2012b\bin\win64\libmwmfl_scalar.dll
0x0000000075f10000 - 0x0000000075f60000 	C:\Program Files\MATLAB\R2012b\bin\win64\mpath.dll
0x000000007b680000 - 0x000000007bc9a000 	C:\Program Files\MATLAB\R2012b\bin\win64\mlutil.dll
0x00000000754d0000 - 0x0000000075551000 	C:\Program Files\MATLAB\R2012b\bin\win64\xmlcore.dll
0x0000000004bb0000 - 0x0000000004e03000 	C:\Program Files\MATLAB\R2012b\bin\win64\xerces-c_2_7.dll
0x0000000004e20000 - 0x0000000004e40000 	C:\Program Files\MATLAB\R2012b\bin\win64\libmwMATLAB_settings_res.dll
0x0000000004e50000 - 0x0000000004e60000 	C:\Program Files\MATLAB\R2012b\bin\win64\boost_iostreams-vc90-mt-1_44.dll
0x0000000004e70000 - 0x0000000004eb7000 	C:\Program Files\MATLAB\R2012b\bin\win64\boost_serialization-vc90-mt-1_44.dll
0x000007fefd010000 - 0x000007fefdd98000 	C:\windows\system32\SHELL32.dll
0x000007fefe940000 - 0x000007fefe9b1000 	C:\windows\system32\SHLWAPI.dll
0x000007fefb5f0000 - 0x000007fefb690000 	C:\windows\WinSxS\amd64_microsoft.windows.common-controls_6595b64144ccf1df_5.82.7601.17514_none_a4d6a923711520a9\COMCTL32.dll
0x000007feff070000 - 0x000007feff107000 	C:\windows\system32\COMDLG32.dll
0x000007fefb7c0000 - 0x000007fefb7d6000 	C:\windows\system32\NETAPI32.dll
0x000007fefb7b0000 - 0x000007fefb7bc000 	C:\windows\system32\netutils.dll
0x000007fefc530000 - 0x000007fefc553000 	C:\windows\system32\srvcli.dll
0x000007fefb790000 - 0x000007fefb7a5000 	C:\windows\system32\wkscli.dll
0x000007fefde80000 - 0x000007fefe083000 	C:\windows\system32\ole32.dll
0x000007fefe9e0000 - 0x000007fefeab7000 	C:\windows\system32\OLEAUT32.dll
0x0000000074970000 - 0x0000000074a31000 	C:\Program Files\MATLAB\R2012b\bin\win64\mcr.dll
0x0000000075000000 - 0x00000000753e9000 	C:\Program Files\MATLAB\R2012b\bin\win64\iqm.dll
0x0000000074e80000 - 0x0000000074f38000 	C:\Program Files\MATLAB\R2012b\bin\win64\m_dispatcher.dll
0x0000000074880000 - 0x000000007496d000 	C:\Program Files\MATLAB\R2012b\bin\win64\boost_regex-vc90-mt-1_44.dll
0x000007feeaf90000 - 0x000007feeb801000 	C:\Program Files\MATLAB\R2012b\bin\win64\m_interpreter.dll
0x000000006d3e0000 - 0x000000006d407000 	C:\Program Files\MATLAB\R2012b\bin\win64\libmex.dll
0x000000006c6b0000 - 0x000000006c734000 	C:\Program Files\MATLAB\R2012b\bin\win64\profiler.dll
0x0000000004f40000 - 0x00000000051aa000 	C:\Program Files\MATLAB\R2012b\bin\win64\libmwmathutil.dll
0x0000000079f40000 - 0x0000000079f6e000 	C:\Program Files\MATLAB\R2012b\bin\win64\libmwmathrng.dll
0x00000000051d0000 - 0x00000000051e2000 	C:\Program Files\MATLAB\R2012b\bin\win64\libmwmfl_rng.dll
0x0000000074c10000 - 0x0000000074cee000 	C:\Program Files\MATLAB\R2012b\bin\win64\libmwmathcore.dll
0x0000000076160000 - 0x00000000761ca000 	C:\Program Files\MATLAB\R2012b\bin\win64\libmwspmatrix.dll
0x0000000075ea0000 - 0x0000000075f02000 	C:\Program Files\MATLAB\R2012b\bin\win64\libmwcholmod.dll
0x000000007a460000 - 0x000000007a46d000 	C:\Program Files\MATLAB\R2012b\bin\win64\libmwamd.dll
0x000000007a4b0000 - 0x000000007a4bc000 	C:\Program Files\MATLAB\R2012b\bin\win64\libmwcolamd.dll
0x000000007a290000 - 0x000000007a2a9000 	C:\Program Files\MATLAB\R2012b\bin\win64\libmwblas.dll
0x000000007a310000 - 0x000000007a321000 	C:\Program Files\MATLAB\R2012b\bin\win64\libmwbinder.dll
0x000000007a4d0000 - 0x000000007a4dc000 	C:\Program Files\MATLAB\R2012b\bin\win64\libmwompwrapper.dll
0x0000000005280000 - 0x0000000005305000 	C:\Program Files\MATLAB\R2012b\bin\win64\libmwlapack.dll
0x000000006d3b0000 - 0x000000006d3d1000 	C:\Program Files\MATLAB\R2012b\bin\win64\m_pcodeio.dll
0x0000000079b10000 - 0x0000000079b77000 	C:\Program Files\MATLAB\R2012b\bin\win64\m_ir.dll
0x000000005f910000 - 0x000000005ff80000 	C:\Program Files\MATLAB\R2012b\bin\win64\m_parser.dll
0x000000006d530000 - 0x000000006d54a000 	C:\Program Files\MATLAB\R2012b\bin\win64\ir_xfmr.dll
0x000007feee070000 - 0x000007feee306000 	C:\Program Files\MATLAB\R2012b\bin\win64\mcos.dll
0x000000006d4f0000 - 0x000000006d501000 	C:\Program Files\MATLAB\R2012b\bin\win64\mtok.dll
0x000000006d2d0000 - 0x000000006d301000 	C:\Program Files\MATLAB\R2012b\bin\win64\m_pcodegen.dll
0x0000000079fb0000 - 0x0000000079fe6000 	C:\Program Files\MATLAB\R2012b\bin\win64\libmwbridge.dll
0x000000006c5e0000 - 0x000000006c6a8000 	C:\Program Files\MATLAB\R2012b\bin\win64\udd.dll
0x000000006b700000 - 0x000000006b852000 	C:\Program Files\MATLAB\R2012b\bin\win64\libmwgui.dll
0x000000006d360000 - 0x000000006d377000 	C:\Program Files\MATLAB\R2012b\bin\win64\graphics_util.dll
0x000000005c730000 - 0x000000005d18f000 	C:\Program Files\MATLAB\R2012b\bin\win64\hg.dll
0x00000000053e0000 - 0x0000000005448000 	C:\Program Files\MATLAB\R2012b\bin\win64\libmat.dll
0x0000000072d30000 - 0x0000000072f44000 	C:\Program Files\MATLAB\R2012b\bin\win64\hdf5dll.dll
0x0000000075710000 - 0x00000000757de000 	C:\Program Files\MATLAB\R2012b\bin\win64\jmi.dll
0x0000000005480000 - 0x000000000548d000 	C:\Program Files\MATLAB\R2012b\bin\win64\nativejava_services.dll
0x000000006bd90000 - 0x000000006bdd6000 	C:\Program Files\MATLAB\R2012b\bin\win64\libmwhardcopy.dll
0x000000006c770000 - 0x000000006c7d3000 	C:\Program Files\MATLAB\R2012b\bin\win64\libuij.dll
0x0000000068e70000 - 0x00000000690d4000 	C:\Program Files\MATLAB\R2012b\bin\win64\hgdatatypes.dll
0x0000000069c10000 - 0x0000000069d2f000 	C:\Program Files\MATLAB\R2012b\bin\win64\hgutils.dll
0x000000006b640000 - 0x000000006b700000 	C:\Program Files\MATLAB\R2012b\bin\win64\udd_mi.dll
0x00000000054f0000 - 0x000000000552b000 	C:\Program Files\MATLAB\R2012b\bin\win64\libmwgbtutils.dll
0x0000000005540000 - 0x000000000555b000 	C:\Program Files\MATLAB\R2012b\bin\win64\libmwgbt.dll
0x0000000005570000 - 0x0000000005841000 	C:\Program Files\MATLAB\R2012b\bin\win64\uiw.dll
0x00000000732f0000 - 0x00000000732ff000 	C:\Program Files\MATLAB\R2012b\bin\win64\uinone.dll
0x0000000005870000 - 0x0000000005899000 	C:\Program Files\MATLAB\R2012b\bin\win64\libmwnativefiledialogs.dll
0x00000000058b0000 - 0x00000000058b8000 	C:\Program Files\MATLAB\R2012b\bin\win64\libmwplatform_res.dll
0x000007fefb770000 - 0x000007fefb788000 	C:\windows\system32\MPR.dll
0x000000005eeb0000 - 0x000000005f394000 	C:\windows\WinSxS\amd64_microsoft.vc90.mfc_1fc8b3b9a1e18e3b_9.0.30729.6161_none_044aad0bab1eb146\mfc90.dll
0x000007fef9830000 - 0x000007fef9837000 	C:\windows\system32\MSIMG32.dll
0x000007fefb690000 - 0x000007fefb701000 	C:\windows\system32\WINSPOOL.DRV
0x000000006d320000 - 0x000000006d342000 	C:\Program Files\MATLAB\R2012b\bin\win64\mwoles05.DLL
0x000000006bd10000 - 0x000000006bd8d000 	C:\Program Files\MATLAB\R2012b\bin\win64\comcli.dll
0x0000000070840000 - 0x000000007086f000 	C:\windows\WinSxS\amd64_microsoft.vc90.atl_1fc8b3b9a1e18e3b_9.0.30729.6161_none_0a1fd3a3a768b895\ATL90.DLL
0x00000000745d0000 - 0x00000000745dc000 	C:\Program Files\MATLAB\R2012b\bin\win64\mlautoregister.dll
0x000007fefe5c0000 - 0x000007fefe5ee000 	C:\windows\system32\IMM32.DLL
0x000007fefec10000 - 0x000007fefed19000 	C:\windows\system32\MSCTF.dll
0x000007fefcb90000 - 0x000007fefcbd0000 	C:\windows\system32\nvinitx.dll
0x0000000007870000 - 0x00000000078d4000 	C:\windows\system32\guard64.dll
0x000007fefcb80000 - 0x000007fefcb89000 	C:\windows\system32\fltlib.dll
0x000007fefa820000 - 0x000007fefa876000 	C:\windows\system32\UxTheme.dll
0x000007fefa290000 - 0x000007fefa2a8000 	C:\windows\system32\dwmapi.dll
0x000007fefcbd0000 - 0x000007fefcbdf000 	C:\windows\system32\profapi.dll
0x0000000005bd0000 - 0x0000000005bdf000 	C:\Program Files\MATLAB\R2012b\bin\win64\xmlxrcsc.dll
0x000007fefcab0000 - 0x000007fefcabf000 	C:\windows\system32\CRYPTBASE.dll
0x000007fef76e0000 - 0x000007fef775f000 	C:\Program Files\Common Files\microsoft shared\ink\tiptsf.dll
0x000007fefbb40000 - 0x000007fefbb4c000 	C:\windows\system32\version.dll
0x000007fefa8d0000 - 0x000007fefaac4000 	C:\windows\WinSxS\amd64_microsoft.windows.common-controls_6595b64144ccf1df_6.0.7601.17514_none_fa396087175ac9ac\comctl32.dll
0x000007fefefd0000 - 0x000007feff069000 	C:\windows\system32\CLBCatQ.DLL
0x000007fefaec0000 - 0x000007fefafec000 	C:\windows\system32\propsys.dll

VM Arguments:
jvm_args: -Xss512k -XX:PermSize=32m -Xms64m -XX:NewRatio=3 -XX:MaxPermSize=128m -Xmx196m -XX:MaxDirectMemorySize=2147400000 -Dsun.java2d.noddraw=true -Dsun.awt.nopixfmt=true -Xshare:off -Xrs -Dsun.awt.disableMixing=true -Djava.library.path=C:\Program Files\MATLAB\R2012b\bin\win64;C:\Program Files\MATLAB\R2012b\sys\jxbrowser\win64\lib vfprintf abort 
java_command: <unknown>
Launcher Type: generic

Environment Variables:
PATH=C:\Program Files (x86)\Haskell\bin;C:\Program Files (x86)\Haskell Platform\2012.4.0.0\lib\extralibs\bin;C:\Program Files (x86)\Haskell Platform\2012.4.0.0\bin;C:\Program Files\NVIDIA GPU Computing Toolkit\CUDA\v5.0\bin\;C:\Program Files\NVIDIA GPU Computing Toolkit\CUDA\v5.0\libnvvp\;C:\Program Files (x86)\NVIDIA Corporation\PhysX\Common;C:\Program Files\Common Files\Microsoft Shared\Windows Live;C:\Program Files (x86)\Common Files\Microsoft Shared\Windows Live;C:\windows\system32;C:\windows;C:\windows\System32\Wbem;C:\windows\System32\WindowsPowerShell\v1.0\;C:\Program Files (x86)\Windows Live\Shared;C:\Program Files (x86)\MiKTeX 2.9\miktex\bin\;C:\Program Files\Microsoft\Web Platform Installer\;C:\Program Files (x86)\Microsoft ASP.NET\ASP.NET Web Pages\v1.0\;C:\Program Files (x86)\Windows Kits\8.0\Windows Performance Toolkit\;C:\Program Files\Microsoft SQL Server\110\Tools\Binn\;C:\Program Files (x86)\Haskell Platform\2012.4.0.0\mingw\bin;C:\Program Files\MATLAB\R2012b\runtime\win64;C:\Program Files\MATLAB\R2012b\bin;C:\MINGW\bin;PATH;C:\Users\Maria\AppData\Roaming\cabal\bin
USERNAME=Maria
OS=Windows_NT
PROCESSOR_IDENTIFIER=Intel64 Family 6 Model 42 Stepping 7, GenuineIntel



---------------  S Y S T E M  ---------------

OS: Windows 7 Build 7601 Service Pack 1

CPU:total 4 (8 cores per cpu, 2 threads per core) family 6 model 42 stepping 7, cmov, cx8, fxsr, mmx, sse, sse2, sse3, ssse3, sse4.1, sse4.2, ht

Memory: 4k page, physical 6202928k(3463404k free), swap 12403996k(7014456k free)

vm_info: Java HotSpot(TM) 64-Bit Server VM (14.3-b01) for windows-amd64 JRE (1.6.0_17-b04), built on Oct 11 2009 00:46:08 by "java_re" with MS VC++ 8.0

time: Tue Oct 08 00:58:47 2013
elapsed time: 125084 seconds

